<svg width="30" height="28" viewBox="0 0 30 28" fill="none" xmlns="http://www.w3.org/2000/svg">
<path d="M15 4.52L17.76 10.1L18.22 11.1L19.22 11.25L25.38 12.14L21 16.44L20.25 17.17L20.43 18.17L21.48 24.3L15.97 21.41L15 21L14.07 21.49L8.56003 24.34L9.56003 18.21L9.74003 17.21L9.00003 16.44L4.58003 12.09L10.74 11.2L11.74 11.05L12.2 10.05L15 4.52ZM15 0L10.45 9.22L0.280029 10.69L7.64003 17.87L5.90003 28L15 23.22L24.1 28L22.36 17.87L29.72 10.7L19.55 9.22L15 0Z" fill="#F9B315"/>
</svg>
